index,vjezba,tacnost,promjena,greske,testovi
76,1,0%,0%,[],[]
76,2,0%,0%,[],[]
76,3,0%,0%,[],[]
2,1,0%,0%,[],[]
2,2,0%,0%,[],[]
2,3,0%,0%,[],[]
3,1,0%,0%,[],[]
3,2,0%,0%,[],[]
3,3,0%,0%,[],[]
4,1,0%,0%,[],[]
4,2,0%,0%,[],[]
4,3,0%,0%,[],[]